{
    "superheroId": 2001,
    "name": "The Director",
    "gender": "Gender-fluid Fem",
    "secretIdentity": "Jesse White",
    "dateOfBirth": "2000-04-14T00:00:00",
    "homeLocation": "Normal, IN",
    "currentLocation": "The oldest house",
    "costumeDescription": "blue jeans, a black leather jacket and a white t-shirt",
    "weakness": "nothing",
    "imagePath": "images/wingback.jpg",
    "inclusiveAge": "mid-20s",
    "superpowers": [
      {
        "superpowerId": 1,
        "name": "Flight",
        "description": "The ability to fly through the air",
        "category": "Movement"
      },
      {
        "superpowerId": 1002,
        "name": "Telekinetic Shield",
        "description": "Hold a shield of nearby objects and debris telekinetically for protection",
        "category": "Defense"
      }
    ]
}